{
  "project_info": {
    "project_number": "552077535281",
    "firebase_url": "https://orange-ocara-int.firebaseio.com",
    "project_id": "orange-ocara-int",
    "storage_bucket": "orange-ocara-int.appspot.com"
  },
  "client": [
    {
      "client_info": {
        "mobilesdk_app_id": "1:552077535281:android:4529976c928c1d235f0d10",
        "android_client_info": {
          "package_name": "com.orange.ocara.int"
        }
      },
      "oauth_client": [
        {
          "client_id": "552077535281-9nl1jlvvnpf1f491f7vll94tu7oemms4.apps.googleusercontent.com",
          "client_type": 3
        }
      ],
      "api_key": [
        {
          "current_key": "AIzaSyAiNnXbySfkBK1hidP_KUEffHu-K9AhC1I"
        }
      ],
      "services": {
        "appinvite_service": {
          "other_platform_oauth_client": [
            {
              "client_id": "552077535281-9nl1jlvvnpf1f491f7vll94tu7oemms4.apps.googleusercontent.com",
              "client_type": 3
            }
          ]
        }
      }
    }
  ],
  "configuration_version": "1"
}